Univariate analysis of continuous and categorical variables
…
Univariate analysis of continuous and categorical variables

2019-09-19

The first step in data exploration usually consists of univariate, descriptive analysis of all variables of interest. Tidycomm offers two basic functions to quickly output relevant statistics:

describe() for continuous variables

tab_frequencies() for categorical variables

For demonstration purposes, we will use sample data from the Worlds of Journalism 2012-16 study included in tidycomm.

WoJ
#> # A tibble: 1,200 x 17
#>    country reach employment temp_contract autonomy_select~ autonomy_emphas~
#>    <fct>   <fct> <chr>      <fct>                    <dbl>            <dbl>
#>  1 Germany Nati~ Full-time  Permanent                    5                4
#>  2 Germany Nati~ Full-time  Permanent                    3                4
#>  3 Switze~ Regi~ Full-time  Permanent                    4                4
#>  4 Switze~ Local Part-time  Permanent                    4                5
#>  5 Austria Nati~ Part-time  Permanent                    4                4
#>  6 Switze~ Local Freelancer <NA>                         4                4
#>  7 Germany Local Full-time  Permanent                    4                4
#>  8 Denmark Nati~ Full-time  Permanent                    3                3
#>  9 Switze~ Local Full-time  Permanent                    5                5
#> 10 Denmark Nati~ Full-time  Permanent                    2                4
#> # ... with 1,190 more rows, and 11 more variables: ethics_1 <dbl>,
#> #   ethics_2 <dbl>, ethics_3 <dbl>, ethics_4 <dbl>, work_experience <dbl>,
#> #   trust_parliament <dbl>, trust_government <dbl>, trust_parties <dbl>,
#> #   trust_politicians <dbl>, ethical_flexibility <dbl>,
#> #   trust_in_politics <dbl>
…
